MFUND,Marketing Fund Name,Document Type,Page Count,PDF File Name,Multi-fund Book
ACB,American Century VP Inflation Protection Bond Fund®,Fund Pro,18,AME001_Fund_0515.pdf,N
ACM,American Century VP Mid Cap Value Fund,Fund Pro,20,AME002_Fund_0515.pdf,N
ACU,American Century VP Ultra Fund,Fund Pro,20,AME003_Fund_0515.pdf,N
ACF,American Century VP Value Fund,Fund Pro,20,AME004_Fund_0515.pdf,N
ACV,American Century VP Capital Appreciation Fund,Fund Pro,20,AME005_Fund_0515.pdf,N
SN1,Calvert VP Nasdaq-100 Index Portfolio,Fund Pro,50,CAL001_Fund_0515.pdf,Y
SN3,Calvert VP Nasdaq-100 Index Portfolio,Fund Pro,50,CAL001_Fund_0515.pdf,Y
SR2,Calvert VP Russell 2000 Small Cap Index Portfolio,Fund Pro,50,CAL001_Fund_0515.pdf,Y
SR3,Calvert VP Russell 2000 Small Cap Index Portfolio,Fund Pro,64,CAL002_Fund_0515.pdf,Y
SR8,Calvert VP Russell 2000 Small Cap Index Portfolio,Fund Pro,64,CAL002_Fund_0515.pdf,Y
SM4,Calvert VP S&P MidCap 400 Index Portfolio  ,Fund Pro,50,CAL001_Fund_0515.pdf,Y
SM3,Calvert VP S&P MidCap 400 Index Portfolio,Fund Pro,64,CAL002_Fund_0515.pdf,Y
SM8,Calvert VP S&P MidCap 400 Index Portfolio,Fund Pro,64,CAL002_Fund_0515.pdf,Y
SE3,Calvert VP EAFE International Index Portfolio,Fund Pro,64,CAL002_Fund_0515.pdf,Y
SEI,Calvert VP EAFE International Index Portfolio,Fund Pro,64,CAL002_Fund_0515.pdf,Y
CI3,Columbia VP - Select International Equity Fund,Fund Pro,32,COL001_Fund_0515.pdf,N
CM3,Columbia VP Mid Cap Value Fund - Class B,Fund Pro,30,COL002_Fund_0515.pdf,N
CV3,Columbia VP Small Cap Value Fund - Class B,Fund Pro,28,COL003_Fund_0515.pdf,N
CG3,Columbia VP Small Company Growth Fund - Class B,Fund Pro,28,COL004_Fund_0515.pdf,N
DCA,Dreyfus VIF Appreciation Portfolio,Fund Pro,14,DRE001_Fund_0515.pdf,N
DGI,Dreyfus VIF Growth and Income Portfolio,Fund Pro,16,DRE002_Fund_0515.pdf,N
DIE,Dreyfus VIF International Equity Portfolio,Fund Pro,16,DRE003_Fund_0515.pdf,N
DSC,Dreyfus VIF Opportunistic Small Cap Portfolio,Fund Pro,14,DRE004_Fund_0515.pdf,N
DRG,The Dreyfus Socially Responsible Growth Fund Inc.,Fund Pro,14,DRE005_Fund_0515.pdf,N
WO3,Deutsche Global Small Cap VIP A,Fund Pro,20,DWS001_Fund_0515.pdf,N
WGO,Deutsche Global Small Cap VIP A,Fund Pro,20,DWS001_Fund_0515.pdf,N
WT3,Deutsche Global Growth VIP A,Fund Pro,20,DWS002_Fund_0515.pdf,N
WGT,Deutsche Global Growth VIP A,Fund Pro,20,DWS002_Fund_0515.pdf,N
FCF,Fidelity VIP Contrafund,Fund Pro,18,FID001_Fund_0515.pdf,N
FC3,Fidelity VIP Contrafund,Fund Pro,18,FID001_Fund_0515.pdf,N
FC8,Fidelity VIP Contrafund,Fund Pro,18,FID001_Fund_0515.pdf,N
FDS,Fidelity VIP Disciplined Small Cap,Fund Pro,16,FID002_Fund_0515.pdf,N
FGR,Fidelity VIP Growth,Fund Pro,16,FID004_Fund_0515.pdf,N
FG3,Fidelity VIP Growth,Fund Pro,16,FID004_Fund_0515.pdf,N
FG8,Fidelity VIP Growth,Fund Pro,16,FID004_Fund_0515.pdf,N
FGI,Fidelity VIP Growth & Income,Fund Pro,16,FID005_Fund_0515.pdf,N
FH2,Fidelity VIP High Income,Fund Pro,16,FID006_Fund_0515.pdf,N
FH3,Fidelity VIP High Income,Fund Pro,16,FID006_Fund_0515.pdf,N
FIX,Fidelity VIP Index 500 ,Fund Pro,16,FID007_Fund_0515.pdf,N
FX3,Fidelity VIP Index 500 ,Fund Pro,16,FID007_Fund_0515.pdf,N
FX8,Fidelity VIP Index 500 ,Fund Pro,16,FID007_Fund_0515.pdf,N
FIB,Fidelity VIP Investment Grade Bond ,Fund Pro,16,FID008_Fund_0515.pdf,N
FMC,Fidelity VIP Mid Cap,Fund Pro,16,FID009_Fund_0515.pdf,N
FM3,Fidelity VIP Mid Cap,Fund Pro,16,FID009_Fund_0515.pdf,N
FOS,Fidelity VIP Overseas,Fund Pro,16,FID010_Fund_0515.pdf,N
FR1,Fidelity VIP Real Estate,Fund Pro,16,FID011_Fund_0515.pdf,N
FR3,Fidelity VIP Real Estate,Fund Pro,16,FID011_Fund_0515.pdf,N
FR8,Fidelity VIP Real Estate,Fund Pro,16,FID011_Fund_0515.pdf,N
FRE,Franklin Global Real Estate VIP,Fund Pro,32,FRA001_Fund_0515.pdf,N
FTV,Franklin Small Cap Value VIP,Fund Pro,28,FRA002_Fund_0515.pdf,N
FV3,Franklin Small Cap Value VIP,Fund Pro,28,FRA002_Fund_0515.pdf,N
FTC,Franklin Small-Mid Cap Growth VIP,Fund Pro,28,FRA003_Fund_0515.pdf,N
FTU,Franklin U.S. Government Securities VIP,Fund Pro,32,FRA004_Fund_0515.pdf,N
FF3,Franklin U.S. Government Securities VIP,Fund Pro,32,FRA004_Fund_0515.pdf,N
FTS,Franklin Mutual Shares VIP,Fund Pro,34,FRA005_Fund_0515.pdf,N
FT3,Franklin Mutual Shares VIP,Fund Pro,34,FRA005_Fund_0515.pdf,N
JM3,JPMorgan Intrepid Mid Cap,Fund Pro,68,JPM001_Fund_0515.pdf,Y
JIM,JPMorgan Intrepid Mid Cap,Fund Pro,68,JPM001_Fund_0515.pdf,Y
JMC,JPMorgan Small Cap Core Port Class 1,Fund Pro,68,JPM001_Fund_0515.pdf,Y
JS3,JPMorgan Small Cap Core Port Class 2,Fund Pro,64,JPM002_Fund_0515.pdf,Y
JSC,JPMorgan Small Cap Core Port Class 2,Fund Pro,64,JPM002_Fund_0515.pdf,Y
JMV,JPMorgan Mid Cap Value ,Fund Pro,68,JPM001_Fund_0515.pdf,Y
TE3,T.Rowe Price Equity Income,Fund Pro,22,TRP001_Fund_0515.pdf,N
TEI,T.Rowe Price Equity Income,Fund Pro,22,TRP001_Fund_0515.pdf,N
TIS,T.Rowe Price International Stock,Fund Pro,22,TRP002_Fund_0515.pdf,N
TI3,T.Rowe Price International Stock,Fund Pro,22,TRP002_Fund_0515.pdf,N
TMC,T.Rowe Price Mid-Cap Growth,Fund Pro,22,TRP003_Fund_0515.pdf,N
TNA,T.Rowe Price New America Growth,Fund Pro,22,TRP004_Fund_0515.pdf,N
TN3,T.Rowe Price New America Growth,Fund Pro,22,TRP004_Fund_0515.pdf,N
TPS,T.Rowe Price Personal Strategy Balanced,Fund Pro,28,TRP005_Fund_0515.pdf,N
TP3,T.Rowe Price Personal Strategy Balanced,Fund Pro,28,TRP005_Fund_0515.pdf,N
FI3,Templeton Global Bond VIP,Fund Pro,36,FRA006_Fund_0515.pdf,N
FTI,Templeton Global Bond VIP,Fund Pro,36,FRA006_Fund_0515.pdf,N
FTG,Templeton Growth VIP,Fund Pro,32,FRA007_Fund_0515.pdf,N
BC1,Federated Managed Tail Risk Fund II,Fund Pro,38,FED001_Fund_0515.pdf,N
BC3,Federated Managed Tail Risk Fund II,Fund Pro,38,FED001_Fund_0515.pdf,N
EBC,Federated Managed Tail Risk Fund II,Fund Pro,38,FED001_Fund_0515.pdf,N
EB3,Federated Managed Tail Risk Fund II,Fund Pro,38,FED001_Fund_0515.pdf,N
EB8,Federated Managed Tail Risk Fund II,Fund Pro,38,FED001_Fund_0515.pdf,N
GC1,Federated Managed Tail Risk Fund II,Fund Pro,38,FED001_Fund_0515.pdf,N
GC3,Federated Managed Tail Risk Fund II,Fund Pro,38,FED001_Fund_0515.pdf,N
EVG,Federated Managed Tail Risk Fund II,Fund Pro,38,FED001_Fund_0515.pdf,N
EV3,Federated Managed Tail Risk Fund II,Fund Pro,38,FED001_Fund_0515.pdf,N
EV8,Federated Managed Tail Risk Fund II,Fund Pro,38,FED001_Fund_0515.pdf,N
XC3,Federated Managed Tail Risk Fund II,Fund Pro,38,FED001_Fund_0515.pdf,N
EC3,Federated Managed Tail Risk Fund II,Fund Pro,38,FED001_Fund_0515.pdf,N
EC8,Federated Managed Tail Risk Fund II,Fund Pro,38,FED001_Fund_0515.pdf,N
XC1,Federated Managed Tail Risk Fund II,Fund Pro,38,FED001_Fund_0515.pdf,N
ECA,Federated Managed Tail Risk Fund II,Fund Pro,38,FED001_Fund_0515.pdf,N
XC4,Federated Managed Tail Risk Fund II,Fund Pro,38,FED001_Fund_0515.pdf,N
MG1,Federated Managed Volatility Fund II,Fund Pro,32,FED002_Fund_0515.pdf,N
EG8,Federated Managed Volatility Fund II,Fund Pro,32,FED002_Fund_0515.pdf,N
MG3,Federated Managed Volatility Fund II,Fund Pro,32,FED002_Fund_0515.pdf,N
EMG,Federated Managed Volatility Fund II,Fund Pro,32,FED002_Fund_0515.pdf,N
EG3,Federated Managed Volatility Fund II,Fund Pro,32,FED002_Fund_0515.pdf,N
XI3,Federated Managed Volatility Fund II,Fund Pro,32,FED002_Fund_0515.pdf,N
EI3,Federated Managed Volatility Fund II,Fund Pro,32,FED002_Fund_0515.pdf,N
EI8,Federated Managed Volatility Fund II,Fund Pro,32,FED002_Fund_0515.pdf,N
XI1,Federated Managed Volatility Fund II,Fund Pro,32,FED002_Fund_0515.pdf,N
ECI,Federated Managed Volatility Fund II,Fund Pro,32,FED002_Fund_0515.pdf,N
XI4,Federated Managed Volatility Fund II,Fund Pro,32,FED002_Fund_0515.pdf,N
MM1,Federated Prime Money Fund II,Fund Pro,20,FED003_Fund_0515.pdf,N
MM3,Federated Prime Money Fund II,Fund Pro,20,FED003_Fund_0515.pdf,N
EMM,Federated Prime Money Fund II,Fund Pro,20,FED003_Fund_0515.pdf,N
EK3,Federated Prime Money Fund II,Fund Pro,20,FED003_Fund_0515.pdf,N
EK8,Federated Prime Money Fund II,Fund Pro,20,FED003_Fund_0515.pdf,N
XP3,Federated Prime Money Fund II,Fund Pro,20,FED003_Fund_0515.pdf,N
EP3,Federated Prime Money Fund II,Fund Pro,20,FED003_Fund_0515.pdf,N
EP8,Federated Prime Money Fund II,Fund Pro,20,FED003_Fund_0515.pdf,N
XP1,Federated Prime Money Fund II,Fund Pro,20,FED003_Fund_0515.pdf,N
EPM,Federated Prime Money Fund II,Fund Pro,20,FED003_Fund_0515.pdf,N
XP4,Federated Prime Money Fund II,Fund Pro,20,FED003_Fund_0515.pdf,N
HQ1,Federated Quality Bond Fund II,Fund Pro,22,FED004_Fund_0515.pdf,N
EH8,Federated Quality Bond Fund II,Fund Pro,22,FED004_Fund_0515.pdf,N
HQ3,Federated Quality Bond Fund II,Fund Pro,22,FED004_Fund_0515.pdf,N
EHG,Federated Quality Bond Fund II,Fund Pro,22,FED004_Fund_0515.pdf,N
EH3,Federated Quality Bond Fund II,Fund Pro,22,FED004_Fund_0515.pdf,N
HY1,Federated Quality Bond Fund II,Fund Pro,22,FED004_Fund_0515.pdf,N
HY3,Federated Quality Bond Fund II,Fund Pro,22,FED004_Fund_0515.pdf,N
EHY,Federated Quality Bond Fund II,Fund Pro,22,FED004_Fund_0515.pdf,N
ES3,Federated Quality Bond Fund II,Fund Pro,22,FED004_Fund_0515.pdf,N
ES8,Federated Quality Bond Fund II,Fund Pro,22,FED004_Fund_0515.pdf,N
XQ3,Federated Quality Bond Fund II,Fund Pro,22,FED004_Fund_0515.pdf,N
EQ3,Federated Quality Bond Fund II,Fund Pro,22,FED004_Fund_0515.pdf,N
EQ8,Federated Quality Bond Fund II,Fund Pro,22,FED004_Fund_0515.pdf,N
XQ1,Federated Quality Bond Fund II,Fund Pro,22,FED004_Fund_0515.pdf,N
EQB,Federated Quality Bond Fund II,Fund Pro,22,FED004_Fund_0515.pdf,N
XQ4,Federated Quality Bond Fund II,Fund Pro,22,FED004_Fund_0515.pdf,N
FarmBureauVA_2002_2007,Farm Bureau VA - 2002-2007,Product Pro,84,FarmBureauVA_2002_2007_0515.pdf,N
FarmBureauVA_2008,Farm Bureau VA - 2008,Product Pro,68,FarmBureauVA_2008_0515.pdf,N
FarmBureauVA_Pre2002,Farm Bureau VA - Pre 2002,Product Pro,84,FarmBureauVA_Pre2002_0515.pdf,N
FarmBureauVUL_2002_2007,Farm Bureau VUL - 2002-2007,Product Pro,72,FarmBureauVUL_2002_2007_0515.pdf,N
FarmBureauLSVUL_2002_2007,Farm Bureau LSVUL - 2002-2007,Product Pro,108,FarmBureauLSVUL_2002_2007_0515.pdf,N
FarmBureauVUL_2008,Farm Bureau VUL - 2008,Product Pro,108,FarmBureauVUL_2008_0515.pdf,N
FarmBureauVUL_Pre2002,Farm Bureau VUL - Pre 2002,Product Pro,184,FarmBureauVUL_Pre2002_0515.pdf,N
EquiTrustBF_NTL_VA,EquiTrust BF/NTL VA,Product Pro,1,EquiTrustBF_NTL_VA_0515.pdf,N
EquiTrustIndianaVA_2008,EquiTrust Indiana VA - 2008,Product Pro,1,EquiTrustIndianaVA_2008_0515.pdf,N
EquiTrustIndianaVA_Pre2008,EquiTrust Indiana VA - Pre 2008,Product Pro,1,EquiTrustIndianaVA_Pre2008_0515.pdf,N
ET2CountryCompaniesVA,ET2 Country Companies VA,Product Pro,1,ET2CountryCompaniesVA_0515.pdf,N
EquiTrustMissouriVA_2008,EquiTrust Missouri VA - 2008,Product Pro,1,EquiTrustMissouriVA_2008_0515.pdf,N
ET2Missouri_Kansas_IdahoVA,ET2 Missouri/Kansas/Idaho VA,Product Pro,1,ET2Missouri_Kansas_IdahoVA_0515.pdf,N
EquiTrustIndianaLSVUL,EquiTrust Indiana LSVUL,Product Pro,1,EquiTrustIndianaLSVUL_0515.pdf,N
EquiTrustIndianaVUL_2008,EquiTrust Indiana VUL - 2008,Product Pro,1,EquiTrustIndianaVUL_2008_0515.pdf,N
EquiTrustIndianaVUL_Pre2008,EquiTrust Indiana VUL - Pre 2008,Product Pro,1,EquiTrustIndianaVUL_Pre2008_0515.pdf,N
EquiTrustBF_NTL_VUL,EquiTrust BF/NTL VUL,Product Pro,1,EquiTrustBF_NTL_VUL_0515.pdf,N
ET2CountryCompaniesLSVUL,ET2 Country Companies LSVUL,Product Pro,1,ET2CountryCompaniesLSVUL_0515.pdf,N
ET2CountryCompaniesVUL,ET2 Country Companies VUL,Product Pro,1,ET2CountryCompaniesVUL_0515.pdf,N
ET2Kansas_IdahoVUL,ET2 Kansas/Idaho VUL,Product Pro,1,ET2Kansas_IdahoVUL_0515.pdf,N
ET2KansasLSVUL,ET2 Kansas LSVUL,Product Pro,1,ET2KansasLSVUL_0515.pdf,N
CILACVUL_2008,CILAC VUL - 2008,Product Pro,1,CILACVUL_2008_0515.pdf,N
CILACVUL_Pre2008,CILAC VUL - Pre 2008,Product Pro,1,CILACVUL_Pre2008_0515.pdf,N
CILACVA_2008,CILAC VA - 2008,Product Pro,1,CILACVA_2008_0515.pdf,N
CILACVA_Pre2008,CILAC VA - Pre 2008,Product Pro,1,CILACVA_Pre2008_0515.pdf,N