EPOLICYVUL01|JOHN||MCCORMICK|||107A BALDHILL DRIVE||||WOODSTOCK|CT|06281|IGNORE|1|VUL|030372825|7132009|N|N|Y
EPOLICYVUL02|ALVIN S||NYQUIST|||2134 HARVARD AVE||||DULUTH|MN|558032227|IGNORE|1|VUL|030372825|7132009|N|N|Y
EPOLICYVUL03|ROSINA||ECONSENT|JR||4057 TAMIAMI TRAIL NORTH||||NAPLES|FL|34103|IGNORE|1|VUL|030372825|7132009|N|N|Y
EPOLICYVUL04|BRUCE|A|BOUNCEVUL|||4055 TAMIAMI TRAIL NORTH||||NAPLES|FL|34103|IGNORE|1|VUL|030372825|7132009|N|N|Y