﻿FundCusip_ProductID,Trust Name,Fund_Product Name,PDF Name,Page Count,Document Type,EndIssueDate,EffectiveDate,Combo_Book_Ind,Fulfill
000000001,,Product A,69448B175.pdf,138,ACTIVE PRODUCT,99999999,20150501,Y,N
000000002,,Product B,694475229.pdf,134,ACTIVE PRODUCT,99999999,20150501,Y,N
000000002,,Product B old version,694475229_old.pdf,198,SERVICE PRODUCT,20010430,20000501,Y,N
000000004,,Product C,694474610.pdf,302,SERVICE PRODUCT,20150501,20140430,Y,N
000000005,,Product D,69447H306.pdf,286,SERVICE PRODUCT,20150501,20140430,Y,N
000000006,,Product E,69447H405.pdf,46,GREAT WESTED PRODUCT,20140430,20130501,Y,Y
000000006,,Product E - Next,69447H405abc.pdf,46,GREAT WESTED PRODUCT,99999999,20140501,Y,Y
000000007,,Product F,694475666.pdf,46,GREAT WESTED PRODUCT,20140430,20130501,N,Y
000000007,,Product F - Next,694475666abc.pdf,258,GREAT WESTED PRODUCT,99999999,20140501,N,Y
999999999,,Product Hold,999999999.pdf,258,GREAT WESTED PRODUCT,20140430,20130501,Y,N
999999999abc,Trust Name,Long Cusip,999999999abc.pdf,8,SUMMARY PROSPECTUS,,20130501,Y,Y
000000008,AIM VARIABLE INSURANCE FUNDS , INVESCO VAN KAMPEN V.I. AMERICAN FRANCHISE FUND,013133.pdf,6,SUMMARY PROSPECTUS,,20150501,N,Y
000000008a,AIM VARIABLE INSURANCE FUNDS  - A, INVESCO VAN KAMPEN V.I. AMERICAN FRANCHISE FUND - A,013133.pdf,6,SUMMARY PROSPECTUS,,20150501,N,Y
000000009,AIM VARIABLE INSURANCE FUNDS , INVESCO VAN KAMPEN V.I. COMSTOCK FUND,013134.pdf,6,SUMMARY PROSPECTUS,,20150501,N,Y
000000010,AIM VARIABLE INSURANCE FUNDS , INVESCO VAN KAMPEN V.I. GROWTH AND INCOME FUND,013135.pdf,4,SUMMARY PROSPECTUS,,20150501,N,Y
000000011,AMERICAN FUNDS INSURANCE SERIES , AMERICAN FUNDS ASSET ALLOCATION AFIS,015148.pdf,4,SUMMARY PROSPECTUS,,20150501,N,Y
000000012,AMERICAN FUNDS INSURANCE SERIES , AMERICAN FUNDS CASH MANAGEMENT AFIS,015149.pdf,4,SUMMARY PROSPECTUS,,20150501,N,Y
000000013,AMERICAN FUNDS INSURANCE SERIES , AMERICAN FUNDS GLOBAL GROWTH AFIS,015150.pdf,4,SUMMARY PROSPECTUS,,20150501,N,Y
000000014,AMERICAN FUNDS INSURANCE SERIES , AMERICAN FUNDS GOVERNMENT AFIS,015151.pdf,4,SUMMARY PROSPECTUS,,20150501,N,Y
000000015,AMERICAN FUNDS INSURANCE SERIES , AMERICAN FUNDS GROWTH AFIS,015153.pdf,4,SUMMARY PROSPECTUS,,20150501,N,Y
000000016,AMERICAN FUNDS INSURANCE SERIES , AMERICAN FUNDS GROWTH-INCOME AFIS,015154.pdf,8,SUMMARY PROSPECTUS,,20150501,N,Y
000000017,AMERICAN FUNDS INSURANCE SERIES , AMERICAN FUNDS HIGH YIELD BOND AFIS,015155.pdf,4,SUMMARY PROSPECTUS,,20150501,N,Y
000000018,AMERICAN FUNDS INSURANCE SERIES , AMERICAN FUNDS INTERNATIONAL AFIS,015156.pdf,4,SUMMARY PROSPECTUS,,20150501,N,Y
000000019,AMERICAN GENERAL LIFE GENERAL ACCOUNT , 1 YEAR DCA FIXED ACCOUNT (AG),025108.pdf,4,SUMMARY PROSPECTUS,,20150501,N,Y
000000020,AMERICAN GENERAL LIFE GENERAL ACCOUNT , 1 YEAR FIXED ACCOUNT (AG),025113.pdf,4,SUMMARY PROSPECTUS,,20150501,N,Y
000000021,AMERICAN GENERAL LIFE GENERAL ACCOUNT , 10 YEAR FIXED ACCOUNT (AG),025116.pdf,4,SUMMARY PROSPECTUS,,20150501,N,Y
000000022,AMERICAN GENERAL LIFE GENERAL ACCOUNT , 2 YEAR DCA FIXED ACCOUNT (AG),025119.pdf,4,SUMMARY PROSPECTUS,,20150501,N,Y
000000023,AMERICAN GENERAL LIFE GENERAL ACCOUNT , 3 YEAR FIXED ACCOUNT (AG),025122.pdf,4,SUMMARY PROSPECTUS,,20150501,N,Y
000000024,AMERICAN GENERAL LIFE GENERAL ACCOUNT , 5 YEAR FIXED ACCOUNT (AG),025125.pdf,4,SUMMARY PROSPECTUS,,20150501,N,Y
000000025,AMERICAN GENERAL LIFE GENERAL ACCOUNT , 6 MONTH DCA FIXED ACCOUNT (AG),025128.pdf,6,SUMMARY PROSPECTUS,,20150501,N,Y
000000026,AMERICAN GENERAL LIFE GENERAL ACCOUNT , 7 YEAR FIXED ACCOUNT (AG),025130.pdf,6,SUMMARY PROSPECTUS,,20150501,N,Y
000000027,AMERICAN GENERAL LIFE GENERAL ACCOUNT , GENERAL ACCOUNT (AG),025174.pdf,6,SUMMARY PROSPECTUS,,20150501,N,Y
000000028,AMERICAN GENERAL LIFE GENERAL ACCOUNT , PAYOUT FIXED FUND (AG),025176.pdf,6,SUMMARY PROSPECTUS,,20150501,N,Y
000000029,AMERICAN GENERAL LIFE GENERAL ACCOUNT , PENDING DEATH HOLDING FUND (AG),025196.pdf,4,SUMMARY PROSPECTUS,,20150501,N,Y
000000030,AMERICAN GENERAL LIFE GENERAL ACCOUNT , SECURE VALUE ACCOUNT (AG),025198.pdf,4,SUMMARY PROSPECTUS,,20150501,N,Y
000000031,ANCHOR SERIES TRUST , ASSET ALLOCATION EDGE,002008.pdf,8,SUMMARY PROSPECTUS,,20150501,N,Y
000000032,ANCHOR SERIES TRUST , CAPITAL APPRECIATION PORTFOLIO,002028.pdf,8,SUMMARY PROSPECTUS,,20150501,N,Y
000000033,ANCHOR SERIES TRUST , GOVERNMENT AND QUALITY BOND PORTFOLIO,002029.pdf,8,SUMMARY PROSPECTUS,,20150501,N,Y
000000034,ANCHOR SERIES TRUST , GROWTH AND INCOME PORTFOLIO,002030.pdf,6,SUMMARY PROSPECTUS,,20150501,N,Y
000000035,ANCHOR SERIES TRUST , GROWTH PORTFOLIO,002031.pdf,4,SUMMARY PROSPECTUS,,20150501,N,Y
000000036,ANCHOR SERIES TRUST , MULTI-ASSET PORTFOLIO,002032.pdf,8,SUMMARY PROSPECTUS,,20150501,N,Y
000000037,ANCHOR SERIES TRUST , NATURAL RESOURCES PORTFOLIO,002033.pdf,4,SUMMARY PROSPECTUS,,20150501,N,Y
000000038,ANCHOR SERIES TRUST , STRATEGIC MULTI-ASSET PORTFOLIO,002035.pdf,6,SUMMARY PROSPECTUS,,20150501,N,Y
000000039,COLUMBIA FUND VARIABLE INSURANCE TRUST , COLUMBIA VP SMALL COMPANY GROWTH FUND,017076.pdf,4,SUMMARY PROSPECTUS,,20150501,N,Y
000000040,COLUMBIA FUND VARIABLE INSURANCE TRUST I , COLUMBIA VP HIGH INCOME FUND,018069.pdf,6,SUMMARY PROSPECTUS,,20150501,N,Y
000000041,COLUMBIA FUND VARIABLE INSURANCE TRUST I , COLUMBIA VP MARSICO 21ST CENTURY FUND,018070.pdf,48,STATUTORY PROSPECTUS,,20150501,N,Y
000000041a,COLUMBIA FUND VARIABLE INSURANCE TRUST I , COLUMBIA VP MARSICO 21ST CENTURY FUND - A,018070.pdf,48,STATUTORY PROSPECTUS,,20150501,N,Y
000000042,COLUMBIA FUND VARIABLE INSURANCE TRUST I , COLUMBIA VP MARSICO FOCUSED EQUITIES,018071.pdf,4,SUMMARY PROSPECTUS,,20150501,N,Y
000000042a,COLUMBIA FUND VARIABLE INSURANCE TRUST I , COLUMBIA VP MARSICO FOCUSED EQUITIES - A,018071.pdf,4,SUMMARY PROSPECTUS,,20150501,N,Y
000000043,COLUMBIA FUND VARIABLE INSURANCE TRUST I , COLUMBIA VP MARSICO GROWTH FUND,018074.pdf,4,SUMMARY PROSPECTUS,,20150501,N,Y
000000044,COLUMBIA FUND VARIABLE INSURANCE TRUST I , COLUMBIA VP MARSICO INT'L OPPORTUNITIES,018075.pdf,12,SUMMARY PROSPECTUS,,20150501,N,Y
000000045,COLUMBIA FUND VARIABLE INSURANCE TRUST I , COLUMBIA VP MID CAP GROWTH FUND,018077.pdf,8,SUMMARY PROSPECTUS,,20150501,N,Y
000000046,COLUMBIA FUNDS VARIABLE SERIES TRUST II , COLUMBIA VP DIVIDEND OPPORTUNITY FUND,024073.pdf,10,SUMMARY PROSPECTUS,,20150501,N,Y
000000047,FIDELITY VARIABLE INSURANCE PRODUCTS TR , FIDELITY VIP CONTRAFUND,022185.pdf,4,SUMMARY PROSPECTUS,,20150501,N,Y
000000048,FIDELITY VARIABLE INSURANCE PRODUCTS TR , FIDELITY VIP EQUITY-INCOME,022186.pdf,4,SUMMARY PROSPECTUS,,20150501,N,Y
000000049,FIDELITY VARIABLE INSURANCE PRODUCTS TR , FIDELITY VIP INVESTMENT GRADE BOND,022187.pdf,4,SUMMARY PROSPECTUS,,20150501,N,Y
000000050,FIDELITY VARIABLE INSURANCE PRODUCTS TR , FIDELITY VIP MID CAP,022188.pdf,4,SUMMARY PROSPECTUS,,20150501,N,Y
000000051,FIDELITY VARIABLE INSURANCE PRODUCTS TR , FIDELITY VIP OVERSEAS,022189.pdf,4,SUMMARY PROSPECTUS,,20150501,N,Y
000000052,FRANKLIN TEMPLETON VAR INS PRODUCTS TR , FRANKLIN INCOME SECURITIES FUND,021183.pdf,4,SUMMARY PROSPECTUS,,20150501,N,Y
000000053,FRANKLIN TEMPLETON VAR INS PRODUCTS TR , FRANKLIN TEMP VIP FOUNDING FUNDS ALLOC FUND,021184.pdf,4,SUMMARY PROSPECTUS,,20150501,N,Y
000000054,LORD ABBETT SERIES FUND INC , LORD ABBETT GROWTH AND INCOME,014143.pdf,4,SUMMARY PROSPECTUS,,20150501,N,Y
000000055,LORD ABBETT SERIES FUND INC , LORD ABBETT MID CAP STOCK,014144.pdf,8,SUMMARY PROSPECTUS,,20150501,N,Y
000000056,PRINCIPAL VAR CONTRACTS FUNDS , BALANCED PVCF,019079.pdf,48,STATUTORY PROSPECTUS,,20150501,N,Y
000000057,PRINCIPAL VAR CONTRACTS FUNDS , CONSERVATIVE BALANCED,019080.pdf,4,SUMMARY PROSPECTUS,,20150501,N,Y
000000058,PRINCIPAL VAR CONTRACTS FUNDS , CONSERVATIVE GROWTH,019081.pdf,4,SUMMARY PROSPECTUS,,20150501,N,Y
000000059,PRINCIPAL VAR CONTRACTS FUNDS , DIVERSIFIED INTERNATIONAL,019082.pdf,4,SUMMARY PROSPECTUS,,20150501,N,Y
000000060,PRINCIPAL VAR CONTRACTS FUNDS , EQUITY INCOME,019083.pdf,4,SUMMARY PROSPECTUS,,20150501,N,Y
000000061,PRINCIPAL VAR CONTRACTS FUNDS , FLEXIBLE INCOME,019084.pdf,4,SUMMARY PROSPECTUS,,20150501,N,Y
000000062,PRINCIPAL VAR CONTRACTS FUNDS , GOVERNMENT & HIGH QUALITY BOND,019085.pdf,48,STATUTORY PROSPECTUS,,20150501,N,Y
000000063,PRINCIPAL VAR CONTRACTS FUNDS , INCOME,019086.pdf,4,SUMMARY PROSPECTUS,,20150501,N,Y
000000064,PRINCIPAL VAR CONTRACTS FUNDS , LARGECAP BLEND II,019087.pdf,4,SUMMARY PROSPECTUS,,20150501,N,Y
000000065,PRINCIPAL VAR CONTRACTS FUNDS , LARGECAP GROWTH,019088.pdf,4,SUMMARY PROSPECTUS,,20150501,N,Y
000000066,PRINCIPAL VAR CONTRACTS FUNDS , MIDCAP BLEND,019089.pdf,4,SUMMARY PROSPECTUS,,20150501,N,Y
000000067,PRINCIPAL VAR CONTRACTS FUNDS , MONEY MARKET PVCF,019090.pdf,4,SUMMARY PROSPECTUS,,20150501,N,Y
000000068,PRINCIPAL VAR CONTRACTS FUNDS , PRINCIPAL CAPITAL APPRECIATION,019091.pdf,4,SUMMARY PROSPECTUS,,20150501,N,Y
000000069,PRINCIPAL VAR CONTRACTS FUNDS , REAL ESTATE SECURITIES,019092.pdf,4,SUMMARY PROSPECTUS,,20150501,N,Y
000000070,PRINCIPAL VAR CONTRACTS FUNDS , SHORT-TERM INCOME,019093.pdf,4,SUMMARY PROSPECTUS,,20150501,N,Y
000000071,PRINCIPAL VAR CONTRACTS FUNDS , SMALLCAP GROWTH II,019094.pdf,4,SUMMARY PROSPECTUS,,20150501,N,Y
000000072,PRINCIPAL VAR CONTRACTS FUNDS , SMALLCAP VALUE I,019152.pdf,4,SUMMARY PROSPECTUS,,20150501,N,Y
000000073,PRINCIPAL VAR CONTRACTS FUNDS , STRATEGIC GROWTH,019158.pdf,4,SUMMARY PROSPECTUS,,20150501,N,Y
000000074,SEASONS SERIES TRUST , BALANCED GROWTH STRATEGY,003037.pdf,4,SUMMARY PROSPECTUS,,20150729,N,Y
000000075,SEASONS SERIES TRUST , CASH MANAGEMENT PORTFOLIO,003038.pdf,4,SUMMARY PROSPECTUS,,20150729,N,Y
000000076,SEASONS SERIES TRUST , CONSERVATIVE GROWTH STRATEGY,003039.pdf,4,SUMMARY PROSPECTUS,,20150729,N,Y
000000077,SEASONS SERIES TRUST , DIVERSIFIED FIXED INCOME PORTFOLIO,003040.pdf,4,SUMMARY PROSPECTUS,,20150729,N,Y
000000078,SEASONS SERIES TRUST , FOCUS GROWTH PORTFOLIO,003041.pdf,4,SUMMARY PROSPECTUS,,20150729,N,Y
000000079,SEASONS SERIES TRUST , FOCUS VALUE PORTFOLIO,003043.pdf,4,SUMMARY PROSPECTUS,,20150729,N,Y
000000080,SEASONS SERIES TRUST , GROWTH STRATEGY,003044.pdf,4,SUMMARY PROSPECTUS,,20150729,N,Y
000000081,SEASONS SERIES TRUST , INTERNATIONAL EQUITY PORTFOLIO,003045.pdf,4,SUMMARY PROSPECTUS,,20150729,N,Y
000000082,SEASONS SERIES TRUST , LARGE CAP GROWTH PORTFOLIO,003046.pdf,4,SUMMARY PROSPECTUS,,20150729,N,Y
000000083,SEASONS SERIES TRUST , LARGE CAP VALUE PORTFOLIO,003047.pdf,4,SUMMARY PROSPECTUS,,20150729,N,Y
000000084,SEASONS SERIES TRUST , MANAGED ALLOCATION BALANCED,003048.pdf,4,SUMMARY PROSPECTUS,,20150729,N,Y
000000085,SEASONS SERIES TRUST , MANAGED ALLOCATION GROWTH,003050.pdf,4,SUMMARY PROSPECTUS,,20150729,N,Y
000000086,SEASONS SERIES TRUST , MANAGED ALLOCATION MODERATE,003053.pdf,4,SUMMARY PROSPECTUS,,20150729,N,Y
000000087,SEASONS SERIES TRUST , MANAGED ALLOCATION MODERATE GROWTH,003132.pdf,4,SUMMARY PROSPECTUS,,20150729,N,Y
000000088,SEASONS SERIES TRUST , MID CAP GROWTH PORTFOLIO,003159.pdf,4,SUMMARY PROSPECTUS,,20150729,N,Y
000000089,SEASONS SERIES TRUST , MID CAP VALUE PORTFOLIO,003160.pdf,4,SUMMARY PROSPECTUS,,20150729,N,Y
000000090,SEASONS SERIES TRUST , MODERATE GROWTH STRATEGY,003161.pdf,4,SUMMARY PROSPECTUS,,20150729,N,Y
000000091,SEASONS SERIES TRUST , REAL RETURN PORTFOLIO,003162.pdf,4,SUMMARY PROSPECTUS,,20150729,N,Y
000000092,SEASONS SERIES TRUST , SMALL CAP PORTFOLIO,003163.pdf,4,SUMMARY PROSPECTUS,,20150729,N,Y
000000093,STERLING CAPITAL VARIABLE INS FUNDS , STERLING CAPITAL SELECT EQUITY VIF,016165.pdf,4,SUMMARY PROSPECTUS,,20150501,N,Y
000000094,STERLING CAPITAL VARIABLE INS FUNDS , STERLING CAPITAL SPECIAL OPPORTUNITIES,016166.pdf,4,SUMMARY PROSPECTUS,,20150501,N,Y
000000095,SUNAMERICA SERIES TRUST , AGGRESSIVE GROWTH PORTFOLIO,001001.pdf,4,SUMMARY PROSPECTUS,,20150501,N,Y
000000096,SUNAMERICA SERIES TRUST , ALLIANCE GROWTH PORTFOLIO,001002.pdf,4,SUMMARY PROSPECTUS,,20150501,N,Y
000000097,SUNAMERICA SERIES TRUST , AMERICAN FUNDS ASSET ALLOCATION SAST,001003.pdf,4,SUMMARY PROSPECTUS,,20150501,N,Y
000000098,SUNAMERICA SERIES TRUST , AMERICAN FUNDS GLOBAL GROWTH SAST,001004.pdf,4,SUMMARY PROSPECTUS,,20150501,N,Y
000000099,SUNAMERICA SERIES TRUST , AMERICAN FUNDS GROWTH SAST,001005.pdf,4,SUMMARY PROSPECTUS,,20150501,N,Y
000000100,SUNAMERICA SERIES TRUST , AMERICAN FUNDS GROWTH-INCOME SAST,001006.pdf,4,SUMMARY PROSPECTUS,,20150501,N,Y
000000101,SUNAMERICA SERIES TRUST , BALANCED PORTFOLIO (JPM),001007.pdf,4,SUMMARY PROSPECTUS,,20150501,N,Y
000000102,SUNAMERICA SERIES TRUST , BLUE CHIP GROWTH PORTFOLIO,001009.pdf,4,SUMMARY PROSPECTUS,,20150501,N,Y
000000103,SUNAMERICA SERIES TRUST , CAPITAL GROWTH PORTFOLIO,001010.pdf,4,SUMMARY PROSPECTUS,,20150501,N,Y
000000104,SUNAMERICA SERIES TRUST , CASH MANAGEMENT PORTFOLIO,001011.pdf,4,SUMMARY PROSPECTUS,,20150501,N,Y
000000105,SUNAMERICA SERIES TRUST , CORPORATE BOND PORTFOLIO,001012.pdf,4,SUMMARY PROSPECTUS,,20150501,N,Y
000000106,SUNAMERICA SERIES TRUST , DAVIS VENTURE VALUE PORTFOLIO,001013.pdf,4,SUMMARY PROSPECTUS,,20150501,N,Y
000000107,SUNAMERICA SERIES TRUST , DOGS OF WALL STREET PORTFOLIO,001014.pdf,4,SUMMARY PROSPECTUS,,20150501,N,Y
000000108,SUNAMERICA SERIES TRUST , EMERGING MARKETS PORTFOLIO,001015.pdf,4,SUMMARY PROSPECTUS,,20150501,N,Y
000000109,SUNAMERICA SERIES TRUST , EQUITY INDEX PORTFOLIO,001016.pdf,4,SUMMARY PROSPECTUS,,20150501,N,Y
000000110,SUNAMERICA SERIES TRUST , EQUITY OPPORTUNITIES PORTFOLIO,001017.pdf,4,SUMMARY PROSPECTUS,,20150501,N,Y
000000111,SUNAMERICA SERIES TRUST , FOREIGN VALUE,001018.pdf,4,SUMMARY PROSPECTUS,,20150501,N,Y
000000112,SUNAMERICA SERIES TRUST , FUNDAMENTAL GROWTH PORTFOLIO,001019.pdf,4,SUMMARY PROSPECTUS,,20150501,N,Y
000000113,SUNAMERICA SERIES TRUST , GLOBAL BOND PORTFOLIO,001020.pdf,4,SUMMARY PROSPECTUS,,20150501,N,Y
000000114,SUNAMERICA SERIES TRUST , GLOBAL EQUITIES PORTFOLIO,001021.pdf,4,SUMMARY PROSPECTUS,,20150501,N,Y
000000115,SUNAMERICA SERIES TRUST , GROWTH OPPORTUNITIES PORTFOLIO,001022.pdf,4,SUMMARY PROSPECTUS,,20150501,N,Y
000000116,SUNAMERICA SERIES TRUST , GROWTH-INCOME PORTFOLIO,001023.pdf,4,SUMMARY PROSPECTUS,,20150501,N,Y
000000117,SUNAMERICA SERIES TRUST , HIGH-YIELD BOND PORTFOLIO,001024.pdf,4,SUMMARY PROSPECTUS,,20150501,N,Y
000000118,SUNAMERICA SERIES TRUST , INTERNATIONAL DIVERSIFIED EQUITIES PORTFOLIO,001025.pdf,4,SUMMARY PROSPECTUS,,20150501,N,Y
000000119,SUNAMERICA SERIES TRUST , INTERNATIONAL GROWTH AND INCOME PORTFOLIO,001026.pdf,4,SUMMARY PROSPECTUS,,20150501,N,Y
000000120,SUNAMERICA SERIES TRUST , MARSICO FOCUSED GROWTH PORTFOLIO,001027.pdf,4,SUMMARY PROSPECTUS,,20150501,N,Y
000000121,SUNAMERICA SERIES TRUST , MFS MASSACHUSETTS INVESTORS TRUST,001054.pdf,4,SUMMARY PROSPECTUS,,20150501,N,Y
000000122,SUNAMERICA SERIES TRUST , MFS TOTAL RETURN PORTFOLIO,001103.pdf,4,SUMMARY PROSPECTUS,,20150501,N,Y
000000123,SUNAMERICA SERIES TRUST , MID-CAP GROWTH PORTFOLIO,001104.pdf,4,SUMMARY PROSPECTUS,,20150501,N,Y
000000124,SUNAMERICA SERIES TRUST , PROTECTED ASSET ALLOCATION SAST PORTFOLIO,001145.pdf,4,SUMMARY PROSPECTUS,,20150501,N,Y
000000125,SUNAMERICA SERIES TRUST , REAL ESTATE PORTFOLIO,001146.pdf,4,SUMMARY PROSPECTUS,,20150501,N,Y
000000126,SUNAMERICA SERIES TRUST , SMALL & MID CAP VALUE,001170.pdf,4,SUMMARY PROSPECTUS,,20150501,N,Y
000000127,SUNAMERICA SERIES TRUST , SMALL COMPANY VALUE PORTFOLIO,001171.pdf,4,SUMMARY PROSPECTUS,,20150501,N,Y
000000128,SUNAMERICA SERIES TRUST , SUNAMERICA DYNAMIC ALLOCATION PORTFOLIO,001172.pdf,4,SUMMARY PROSPECTUS,,20150501,N,Y
000000129,SUNAMERICA SERIES TRUST , SUNAMERICA DYNAMIC STRATEGY PORTFOLIO,001173.pdf,4,SUMMARY PROSPECTUS,,20150501,N,Y
000000130,SUNAMERICA SERIES TRUST , TECHNOLOGY PORTFOLIO,001204.pdf,4,SUMMARY PROSPECTUS,,20150501,N,Y
000000131,SUNAMERICA SERIES TRUST , TELECOM UTILITY PORTFOLIO,001207.pdf,4,SUMMARY PROSPECTUS,,20150501,N,Y
000000132,SUNAMERICA SERIES TRUST , TOTAL RETURN BOND (PIMCO),001208.pdf,4,SUMMARY PROSPECTUS,,20150501,N,Y
000000133,T ROWE PRICE TRUST , T. ROWE PRICE BLUE CHIP GROWTH II,023190.pdf,4,SUMMARY PROSPECTUS,,20150501,N,Y
000000134,T ROWE PRICE TRUST , T. ROWE PRICE EQUITY INCOME II,023191.pdf,4,SUMMARY PROSPECTUS,,20150501,N,Y
000000135,VALIC Company I , Asset Allocation Fund (PineBridge),000001.pdf,4,SUMMARY PROSPECTUS,,20150928,N,Y
000000136,VALIC Company I , Blue Chip Growth Fund (T. Rowe Price),000002.pdf,4,SUMMARY PROSPECTUS,,20150928,N,Y
000000137,VALIC Company I , Broad Cap Value Income Fund (Barrow Hanley),000003.pdf,4,SUMMARY PROSPECTUS,,20150928,N,Y
000000138,VALIC Company I , Capital Conservation Fund (PineBridge),000004.pdf,4,SUMMARY PROSPECTUS,,20150928,N,Y
000000139,VALIC Company I , Core Equity Fund (BlackRock),000005.pdf,4,SUMMARY PROSPECTUS,,20150928,N,Y
000000140,VALIC Company I , Dividend Value Fund (BlackRock/SunAmerica),000006.pdf,4,SUMMARY PROSPECTUS,,20150928,N,Y
000000141,VALIC Company I , Dynamic Allocation Fund (AllianceBerstein/Sun America) ,000007.pdf,4,SUMMARY PROSPECTUS,,20150928,N,Y
000000142,VALIC Company I , Emerging Economies Fund (JP Morgan),000008.pdf,4,SUMMARY PROSPECTUS,,20150928,N,Y
000000143,VALIC Company I , Foreign Value Fund (Franklin Templeton),000009.pdf,4,SUMMARY PROSPECTUS,,20150928,N,Y
000000144,VALIC Company I , Global Real Estate Fund (Invesco/Goldman Sachs),000010.pdf,4,SUMMARY PROSPECTUS,,20150928,N,Y
000000145,VALIC Company I , Global Social Awareness Fund (PineBridge),000011.pdf,4,SUMMARY PROSPECTUS,,20150928,N,Y
000000146,VALIC Company I , Global Strategy Fund (Franklin Templeton),000012.pdf,4,SUMMARY PROSPECTUS,,20150928,N,Y
000000147,VALIC Company I , Government Securities Fund (JP Morgan/SunAmerica),000013.pdf,4,SUMMARY PROSPECTUS,,20150928,N,Y
000000148,VALIC Company I , Growth and Income Fund (SunAmerica),000014.pdf,4,SUMMARY PROSPECTUS,,20150928,N,Y
000000149,VALIC Company I , Growth Fund (American Century),000015.pdf,4,SUMMARY PROSPECTUS,,20150928,N,Y
000000150,VALIC Company I , Health Sciences Fund (T. Rowe Price),000016.pdf,4,SUMMARY PROSPECTUS,,20150928,N,Y
000000151,VALIC Company I , Inflation Protected Fund (PineBridge),000017.pdf,4,SUMMARY PROSPECTUS,,20150928,N,Y
000000152,VALIC Company I , International Equities Fund (PineBridge),000018.pdf,4,SUMMARY PROSPECTUS,,20150928,N,Y
000000153,VALIC Company I , International Government Bond Fund (PineBridge),000019.pdf,4,SUMMARY PROSPECTUS,,20150928,N,Y
000000154,VALIC Company I , International Growth Fund (American Century/Invesco/MFS),000020.pdf,4,SUMMARY PROSPECTUS,,20150928,N,Y
000000155,VALIC Company I , Large Cap Core Fund (Columbia),000021.pdf,4,SUMMARY PROSPECTUS,,20150928,N,Y
000000156,VALIC Company I , Large Capital Growth Fund (SunAmerica/Invesco),000022.pdf,4,SUMMARY PROSPECTUS,,20150928,N,Y
000000157,VALIC Company I , Mid Cap Index Fund (SunAmerica),000023.pdf,4,SUMMARY PROSPECTUS,,20150928,N,Y
000000158,VALIC Company I , Mid Cap Strategic Growth Fund (Morgan Stanley/RCM),000024.pdf,4,SUMMARY PROSPECTUS,,20150928,N,Y
000000159,VALIC Company I , Money Market I Fund,000025.pdf,4,SUMMARY PROSPECTUS,,20150928,N,Y
000000160,VALIC Company I , Nasdaq-100® Index Fund (SunAmerica),000026.pdf,4,SUMMARY PROSPECTUS,,20150928,N,Y
000000161,VALIC Company I , Science and Technology Fund (T. Rowe Price/RCM/Wellington),000027.pdf,48,STATUTORY PROSPECTUS,,20150928,N,Y
000000162,VALIC Company I , Small Cap Aggressive Growth Fund (RS Investments),000028.pdf,4,SUMMARY PROSPECTUS,,20150928,N,Y
000000163,VALIC Company I , Small Cap Fund (Invesco/T. RowePrice/Bridgeway),000029.pdf,4,SUMMARY PROSPECTUS,,20150928,N,Y
000000164,VALIC Company I , Small Cap Index Fund (SunAmerica),000030.pdf,4,SUMMARY PROSPECTUS,,20150928,N,Y
000000165,VALIC Company I , Small Cap Special Value Fund (Wells Cap/Dreman),000031.pdf,4,SUMMARY PROSPECTUS,,20150928,N,Y
000000166,VALIC Company I , Small-Mid Growth Fund (Wells Cap/Century Capital),000032.pdf,4,SUMMARY PROSPECTUS,,20150928,Y,Y
000000167,VALIC Company I , Stock Index Fund (SunAmerica),000033.pdf,4,SUMMARY PROSPECTUS,,20150928,N,N
