H D 7C TRANSACTION                                    20141223000001
1||85|AFC1SUPPTC4D1D|JOHN||MCCORMICK||107A BALDHILL DR|||||WOODSTOCK|CT|12|06281|N||170|Horizon|1907-03-15||2999-12-31|N
2||85|AFC1SUPPTC4D1D||015544208||015544208|Alger Balanced Portfolio|170
1||85|AFC2SUPPTC4D1D|FN2AFCSUPPTC4D1D||LN2AFCSUPPTC4D1D||ADDR12AFCSUPPTC4D1D|||||FOREST LAKE|MN|12|55025|N||170|Horizon|1907-03-15||2999-12-31|N
2||85|AFC2SUPPTC4D1D||015544208||015544208|Alger Balanced Portfolio|170
2||85|AFC2SUPPTC4D1D||024936825||024936825|American Century VP Value Fund|170
1||85|AFC3SUPPTC4D1D|FN3AFCSUPPTC4D1D||LN3AFCSUPPTC4D1D||ADDR13AFCSUPPTC4D1D|||||FOREST LAKE|MN|12|55025|N||170|Horizon|1907-03-15||2999-12-31|N
2||85|AFC3SUPPTC4D1D||024936601||024936601|American Century VP Value Fund|170
2||85|AFC3SUPPTC4D1D||015544208||015544208|Alger Balanced Portfolio|170
1||85|AFC5SUPPTC4D1D|FN3AFCSUPPTC4D1D||LN3AFCSUPPTC4D1D||ADDR13AFCSUPPTC4D1D|||||FOREST LAKE|MN|12|55025|N||170|Horizon|1907-03-15||2999-12-31|N
2||85|AFC5SUPPTC4D1D||024936601||024936601|American Century VP Value Fund|170
2||85|AFC5SUPPTC4D1D||018792671||018792671|VPS Intermediate Bond Portfolio|170
T     12